3 Dose Response Analysis of C. elegans | Cherin-Juliette | Portfolio
…
## clean names of the merged dataset
#### default option is snake case
janitor::clean_names(df)

## # A tibble: 384 × 44
##    subject_id covid age_cat bmi_cat heart  lung kidney diabetes   htn immuno
##         <dbl> <dbl>   <dbl>   <dbl> <dbl> <dbl>  <dbl>    <dbl> <dbl>  <dbl>
##  1          1     1       1       4     0     0      0        0     0      0
##  2          2     1       2       2     0     0      0        0     0      0
##  3          3     1       3       4     0     1      0        0     0      0
##  4          4     1       1       2     0     0      0        0     0      0
##  5          5     1       3       3     0     0      0        1     1      0
##  6          6     1       1       1     1     0      0        0     0      0
##  7          7     1       2       2     0     0      0        1     0      0
##  8          8     0       4       3     0     0      0        1     1      1
##  9          9     1       5       2     0     1      1        0     1      0
## 10         10     0       2       2     0     0      0        0     0      0
## # … with 374 more rows, and 34 more variables: resp_symp <dbl>,
## #   fever_sympt <dbl>, gi_symp <dbl>, d0_draw <dbl>, d3_draw <dbl>,
## #   d7_draw <dbl>, de_draw <dbl>, acuity_0 <dbl>, acuity_3 <dbl>,
## #   acuity_7 <dbl>, acuity_28 <dbl>, acuity_max <dbl>, abs_neut_0_cat <dbl>,
## #   abs_lymph_0_cat <dbl>, abs_mono_0_cat <dbl>, creat_0_cat <dbl>,
## #   crp_0_cat <dbl>, ddimer_0_cat <dbl>, ldh_0_cat <dbl>, trop_72h <dbl>,
## #   abs_neut_3_cat <dbl>, abs_lymph_3_cat <dbl>, abs_mono_3_cat <dbl>, …
